{
  "dependencies": [
    {
      "source": {
        "git": {
          "remote": "https://github.com/yugui/jsonnetunit",
          "subdir": "jsonnetunit"
        }
      },
      "version": "master",
      "name": "jsonnetunit"
    }
  ],
  "legacyImports": false
}
